R : dataframe, tibble | stahangryum
…
gain, speed를 계산하고 싶다. 

아래의 수식을 시용하여 gain, speed를 계산하자.

- gain = dep_delay - arr_delay

- speed = distance / air_time

df = df %>% 
mutate(gain= dep_delay-arr_delay, speed= distance / air_time)
print(df)

# A tibble: 336,776 x 9
    year month   day dep_delay arr_delay distance air_time  gain speed
   <int> <int> <int>     <dbl>     <dbl>    <dbl>    <dbl> <dbl> <dbl>
 1  2013     1     1         2        11     1400      227    -9  6.17
 2  2013     1     1         4        20     1416      227   -16  6.24
 3  2013     1     1         2        33     1089      160   -31  6.81
 4  2013     1     1        -1       -18     1576      183    17  8.61
 5  2013     1     1        -6       -25      762      116    19  6.57
 6  2013     1     1        -4        12      719      150   -16  4.79
 7  2013     1     1        -5        19     1065      158   -24  6.74
 8  2013     1     1        -3       -14      229       53    11  4.32
 9  2013     1     1        -3        -8      944      140     5  6.74
10  2013     1     1        -2         8      733      138   -10  5.31
# ... with 336,766 more rows
…
